07-class-ds4ir-assignment
…
by_country <- by_country %>% 
  mutate(resids = map2(data, model, add_residuals))

resids <- unnest(by_country, resids)

glance <- by_country %>% 
  mutate(glance = map(model, broom::glance)) %>% 
  unnest(glance) %>% 
  filter(continent == "Asia") %>% 
  arrange(r.squared)

glance

## # A tibble: 33 x 17
## # Groups:   country, continent [33]
##    country continent data  model resids r.squared adj.r.squared sigma statistic
##    <fct>   <fct>     <lis> <lis> <list>     <dbl>         <dbl> <dbl>     <dbl>
##  1 Iraq    Asia      <tib <lm>  <tibb     0.546         0.500  4.06      12.0
##  2 Cambod Asia      <tib <lm>  <tibb     0.639         0.603  5.63      17.7
##  3 Korea, Asia      <tib <lm>  <tibb     0.703         0.673  3.89      23.7
##  4 China   Asia      <tib <lm>  <tibb     0.871         0.858  3.86      67.7
##  5 Myanmar Asia      <tib <lm>  <tibb     0.879         0.867  3.03      72.9
##  6 Lebanon Asia      <tib <lm>  <tibb     0.942         0.936  1.23     162. 
##  7 Malays Asia      <tib <lm>  <tibb     0.947         0.941  2.09     177. 
##  8 Afghan Asia      <tib <lm>  <tibb     0.948         0.942  1.22     181. 
##  9 Sri La Asia      <tib <lm>  <tibb     0.948         0.942  1.09     181. 
## 10 Kuwait  Asia      <tib <lm>  <tibb     0.952         0.948  1.76     200. 
## #  with 23 more rows, and 8 more variables: p.value <dbl>, df <dbl>,
## #   logLik <dbl>, AIC <dbl>, BIC <dbl>, deviance <dbl>, df.residual <int>,
## #   nobs <int>
…
